<?xml version="1.0" encoding="UTF-8" standalone="no"?>
<!-- Created with Inkscape (http://www.inkscape.org/) -->

<svg
   width="268.22345mm"
   height="110.11209mm"
   viewBox="0 0 268.22345 110.11209"
   version="1.1"
   id="svg5"
   inkscape:version="1.1.1 (3bf5ae0d25, 2021-09-20)"
   sodipodi:docname="drawing.svg"
   xmlns:inkscape="http://www.inkscape.org/namespaces/inkscape"
   xmlns:sodipodi="http://sodipodi.sourceforge.net/DTD/sodipodi-0.dtd"
   xmlns="http://www.w3.org/2000/svg"
   xmlns:svg="http://www.w3.org/2000/svg">
  <sodipodi:namedview
     id="namedview7"
     pagecolor="#505050"
     bordercolor="#eeeeee"
     borderopacity="1"
     inkscape:pageshadow="0"
     inkscape:pageopacity="0"
     inkscape:pagecheckerboard="0"
     inkscape:document-units="mm"
     showgrid="false"
     inkscape:zoom="0.55943157"
     inkscape:cx="532.68355"
     inkscape:cy="-40.219396"
     inkscape:window-width="1920"
     inkscape:window-height="1043"
     inkscape:window-x="1920"
     inkscape:window-y="0"
     inkscape:window-maximized="1"
     inkscape:current-layer="layer1"
     inkscape:snap-object-midpoints="true"
     inkscape:snap-global="false"
     inkscape:object-paths="true" />
  <defs
     id="defs2">
    <rect
       x="309.59793"
       y="587.80756"
       width="96.045189"
       height="36.825558"
       id="rect47940" />
    <rect
       x="152.46652"
       y="70.44928"
       width="254.52107"
       height="43.768566"
       id="rect5580" />
    <rect
       x="-147.91995"
       y="375.129"
       width="120.21571"
       height="79.33197"
       id="rect14909" />
    <marker
       style="overflow:visible"
       id="Arrow1Send"
       refX="0"
       refY="0"
       orient="auto"
       inkscape:stockid="Arrow1Send"
       inkscape:isstock="true">
      <path
         transform="matrix(-0.2,0,0,-0.2,-1.2,0)"
         style="fill:context-stroke;fill-rule:evenodd;stroke:context-stroke;stroke-width:1pt"
         d="M 0,0 5,-5 -12.5,0 5,5 Z"
         id="path10679" />
    </marker>
    <marker
       style="overflow:visible"
       id="Arrow1Sstart"
       refX="0"
       refY="0"
       orient="auto"
       inkscape:stockid="Arrow1Sstart"
       inkscape:isstock="true">
      <path
         transform="matrix(0.2,0,0,0.2,1.2,0)"
         style="fill:context-stroke;fill-rule:evenodd;stroke:context-stroke;stroke-width:1pt"
         d="M 0,0 5,-5 -12.5,0 5,5 Z"
         id="path10676" />
    </marker>
    <marker
       style="overflow:visible"
       id="Arrow1Mstart"
       refX="0"
       refY="0"
       orient="auto"
       inkscape:stockid="Arrow1Mstart"
       inkscape:isstock="true">
      <path
         transform="matrix(0.4,0,0,0.4,4,0)"
         style="fill:context-stroke;fill-rule:evenodd;stroke:context-stroke;stroke-width:1pt"
         d="M 0,0 5,-5 -12.5,0 5,5 Z"
         id="path10670" />
    </marker>
    <marker
       style="overflow:visible"
       id="Arrow1Sstart-2"
       refX="0"
       refY="0"
       orient="auto"
       inkscape:stockid="Arrow1Sstart"
       inkscape:isstock="true">
      <path
         transform="matrix(0.2,0,0,0.2,1.2,0)"
         style="fill:context-stroke;fill-rule:evenodd;stroke:context-stroke;stroke-width:1pt"
         d="M 0,0 5,-5 -12.5,0 5,5 Z"
         id="path10676-9" />
    </marker>
    <marker
       style="overflow:visible"
       id="Arrow1Send-9"
       refX="0"
       refY="0"
       orient="auto"
       inkscape:stockid="Arrow1Send"
       inkscape:isstock="true">
      <path
         transform="matrix(-0.2,0,0,-0.2,-1.2,0)"
         style="fill:context-stroke;fill-rule:evenodd;stroke:context-stroke;stroke-width:1pt"
         d="M 0,0 5,-5 -12.5,0 5,5 Z"
         id="path10679-6" />
    </marker>
    <rect
       x="-147.91995"
       y="375.129"
       width="137.69496"
       height="94.19593"
       id="rect14909-3" />
    <marker
       style="overflow:visible"
       id="Arrow1Sstart-5"
       refX="0"
       refY="0"
       orient="auto"
       inkscape:stockid="Arrow1Sstart"
       inkscape:isstock="true">
      <path
         transform="matrix(0.2,0,0,0.2,1.2,0)"
         style="fill:context-stroke;fill-rule:evenodd;stroke:context-stroke;stroke-width:1pt"
         d="M 0,0 5,-5 -12.5,0 5,5 Z"
         id="path10676-99" />
    </marker>
    <marker
       style="overflow:visible"
       id="Arrow1Send-1"
       refX="0"
       refY="0"
       orient="auto"
       inkscape:stockid="Arrow1Send"
       inkscape:isstock="true">
      <path
         transform="matrix(-0.2,0,0,-0.2,-1.2,0)"
         style="fill:context-stroke;fill-rule:evenodd;stroke:context-stroke;stroke-width:1pt"
         d="M 0,0 5,-5 -12.5,0 5,5 Z"
         id="path10679-4" />
    </marker>
    <marker
       style="overflow:visible"
       id="Arrow1Send-0"
       refX="0"
       refY="0"
       orient="auto"
       inkscape:stockid="Arrow1Send"
       inkscape:isstock="true">
      <path
         transform="matrix(-0.2,0,0,-0.2,-1.2,0)"
         style="fill:context-stroke;fill-rule:evenodd;stroke:context-stroke;stroke-width:1pt"
         d="M 0,0 5,-5 -12.5,0 5,5 Z"
         id="path10679-7" />
    </marker>
    <marker
       style="overflow:visible"
       id="Arrow1Send-96"
       refX="0"
       refY="0"
       orient="auto"
       inkscape:stockid="Arrow1Send"
       inkscape:isstock="true">
      <path
         transform="matrix(-0.2,0,0,-0.2,-1.2,0)"
         style="fill:context-stroke;fill-rule:evenodd;stroke:context-stroke;stroke-width:1pt"
         d="M 0,0 5,-5 -12.5,0 5,5 Z"
         id="path10679-1" />
    </marker>
    <marker
       style="overflow:visible"
       id="Arrow1Send-4"
       refX="0"
       refY="0"
       orient="auto"
       inkscape:stockid="Arrow1Send"
       inkscape:isstock="true">
      <path
         transform="matrix(-0.2,0,0,-0.2,-1.2,0)"
         style="fill:context-stroke;fill-rule:evenodd;stroke:context-stroke;stroke-width:1pt"
         d="M 0,0 5,-5 -12.5,0 5,5 Z"
         id="path10679-2" />
    </marker>
    <rect
       x="152.46652"
       y="70.44928"
       width="185.01518"
       height="26.876289"
       id="rect5580-1" />
    <rect
       x="152.46652"
       y="70.44928"
       width="335.59253"
       height="24.371256"
       id="rect5580-1-9" />
    <marker
       style="overflow:visible"
       id="Arrow1Send-43"
       refX="0"
       refY="0"
       orient="auto"
       inkscape:stockid="Arrow1Send"
       inkscape:isstock="true">
      <path
         transform="matrix(-0.2,0,0,-0.2,-1.2,0)"
         style="fill:context-stroke;fill-rule:evenodd;stroke:context-stroke;stroke-width:1pt"
         d="M 0,0 5,-5 -12.5,0 5,5 Z"
         id="path10679-14" />
    </marker>
    <rect
       x="309.59793"
       y="587.80756"
       width="96.045189"
       height="36.825558"
       id="rect47940-2" />
    <rect
       x="309.59793"
       y="587.80756"
       width="96.045189"
       height="36.825558"
       id="rect47940-2-4" />
    <rect
       x="309.59793"
       y="587.80756"
       width="96.045189"
       height="36.825558"
       id="rect47940-2-2" />
  </defs>
  <g
     inkscape:label="Layer 1"
     inkscape:groupmode="layer"
     id="layer1"
     transform="translate(50.773871,-86.248775)">
    <path
       style="font-variation-settings:normal;opacity:1;vector-effect:none;fill:none;fill-opacity:1;stroke:#800080;stroke-width:1;stroke-linecap:butt;stroke-linejoin:miter;stroke-miterlimit:4;stroke-dasharray:none;stroke-dashoffset:0;stroke-opacity:1;-inkscape-stroke:none;marker-end:url(#Arrow1Send);stop-color:#000000;stop-opacity:1"
       d="M 107.57059,176.41522 94.567329,135.01233 70.889727,139.4259 45.63846,134.601"
       id="path18532"
       sodipodi:nodetypes="cccc" />
    <rect
       style="fill:none;fill-opacity:1;stroke:#000000;stroke-width:1;stroke-linecap:butt;stroke-linejoin:miter;stroke-miterlimit:4;stroke-dasharray:none;stroke-dashoffset:0;stroke-opacity:1;paint-order:markers fill stroke"
       id="rect31-2"
       width="44.377541"
       height="24.242718"
       x="90.792267"
       y="171.61815" />
    <path
       style="font-variation-settings:normal;opacity:1;vector-effect:none;fill:none;fill-opacity:1;stroke:#800080;stroke-width:1;stroke-linecap:butt;stroke-linejoin:miter;stroke-miterlimit:4;stroke-dasharray:none;stroke-dashoffset:0;stroke-opacity:1;-inkscape-stroke:none;marker-end:url(#Arrow1Send);stop-color:#000000;stop-opacity:1"
       d="m 69.226834,119.13336 v 11.7292 l 62.167916,-27.43466 23.7306,4.33571 h 30.15612"
       id="path18811"
       sodipodi:nodetypes="ccccc" />
    <text
       xml:space="preserve"
       style="font-style:normal;font-variant:normal;font-weight:bold;font-stretch:normal;font-size:4.9389px;line-height:1.25;font-family:monospace;-inkscape-font-specification:'monospace Bold';font-variant-ligatures:normal;font-variant-caps:normal;font-variant-numeric:normal;font-feature-settings:normal;text-align:center;letter-spacing:0px;word-spacing:0px;writing-mode:lr-tb;text-anchor:middle;fill:#000000;fill-opacity:1;stroke:none;stroke-width:0.264583"
       x="113.11971"
       y="182.41797"
       id="text25600"><tspan
         sodipodi:role="line"
         id="tspan25598"
         style="font-style:normal;font-variant:normal;font-weight:bold;font-stretch:normal;font-family:monospace;-inkscape-font-specification:'monospace Bold';text-align:center;text-anchor:middle;stroke-width:0.264583"
         x="113.11971"
         y="182.41797">Management</tspan><tspan
         sodipodi:role="line"
         style="font-style:normal;font-variant:normal;font-weight:bold;font-stretch:normal;font-family:monospace;-inkscape-font-specification:'monospace Bold';text-align:center;text-anchor:middle;stroke-width:0.264583"
         x="113.11971"
         y="188.5916"
         id="tspan25602">machine</tspan></text>
    <text
       xml:space="preserve"
       style="font-style:normal;font-variant:normal;font-weight:normal;font-stretch:normal;font-size:4.9389px;line-height:1.25;font-family:monospace;-inkscape-font-specification:monospace;font-variant-ligatures:normal;font-variant-caps:normal;font-variant-numeric:normal;font-feature-settings:normal;text-align:start;letter-spacing:0px;word-spacing:0px;writing-mode:lr-tb;text-anchor:start;fill:#000000;fill-opacity:1;stroke:none;stroke-width:0.264583"
       x="47.793495"
       y="56.127335"
       id="text2702"><tspan
         sodipodi:role="line"
         id="tspan2700"
         style="stroke-width:0.264583"
         x="47.793495"
         y="56.127335" /></text>
    <g
       id="g89436">
      <circle
         style="fill:#ffffff;fill-opacity:1;stroke:#000000;stroke-width:1;stroke-linecap:butt;stroke-linejoin:miter;stroke-miterlimit:4;stroke-dasharray:none;stroke-dashoffset:0;stroke-opacity:1;paint-order:markers fill stroke"
         id="path7064-2-9"
         cx="-29.38582"
         cy="160.83473"
         r="4.1263804" />
      <text
         xml:space="preserve"
         transform="matrix(0.26458333,0,0,0.26458333,-61.006649,139.61742)"
         id="text5578"
         style="font-style:normal;font-variant:normal;font-weight:normal;font-stretch:normal;font-size:16px;line-height:1.25;font-family:monospace;-inkscape-font-specification:monospace;font-variant-ligatures:normal;font-variant-caps:normal;font-variant-numeric:normal;font-feature-settings:normal;text-align:start;letter-spacing:0px;word-spacing:0px;writing-mode:lr-tb;white-space:pre;shape-inside:url(#rect5580);fill:#000000;fill-opacity:1;stroke:none"
         x="-55.496666"
         y="0"><tspan
           x="152.4668"
           y="84.605469"
           id="tspan89563">Standard network port</tspan></text>
    </g>
    <g
       id="g89431"
       transform="translate(0,2.6458333)">
      <circle
         style="fill:#800080;fill-opacity:1;stroke:#000000;stroke-width:1;stroke-linecap:butt;stroke-linejoin:miter;stroke-miterlimit:4;stroke-dasharray:none;stroke-dashoffset:0;stroke-opacity:1;paint-order:markers fill stroke"
         id="circle7168-8-6"
         cx="-29.38582"
         cy="171.34633"
         r="4.1263804" />
      <text
         xml:space="preserve"
         transform="matrix(0.26458333,0,0,0.26458333,-68.870768,150.53933)"
         id="text5578-4"
         style="font-style:normal;font-variant:normal;font-weight:normal;font-stretch:normal;font-size:16px;line-height:1.25;font-family:monospace;-inkscape-font-specification:monospace;font-variant-ligatures:normal;font-variant-caps:normal;font-variant-numeric:normal;font-feature-settings:normal;text-align:center;letter-spacing:0px;word-spacing:0px;writing-mode:lr-tb;white-space:pre;shape-inside:url(#rect5580-1);fill:#000000;fill-opacity:1;stroke:none"
         x="44.31974"
         y="0"><tspan
           x="182.36133"
           y="84.605469"
           id="tspan89565">Onion service</tspan></text>
    </g>
    <g
       id="g89427">
      <g
         id="g1246"
         transform="translate(-123.10228,142.13197)">
        <circle
           style="fill:#800080;fill-opacity:1;stroke:#000000;stroke-width:1;stroke-linecap:butt;stroke-linejoin:miter;stroke-miterlimit:4;stroke-dasharray:none;stroke-dashoffset:0;stroke-opacity:1;paint-order:markers fill stroke"
           id="circle7168-8-6-9"
           cx="93.716454"
           cy="45.017616"
           r="4.1263804" />
        <circle
           style="fill:none;stroke:#000000;stroke-width:1;-inkscape-stroke:none;paint-order:markers fill stroke;stop-color:#000000"
           id="path1140"
           cx="93.716454"
           cy="45.017616"
           r="2.131649" />
      </g>
      <text
         xml:space="preserve"
         transform="matrix(0.26458333,0,0,0.26458333,-70.784605,166.34259)"
         id="text5578-4-1"
         style="font-style:normal;font-variant:normal;font-weight:normal;font-stretch:normal;font-size:16px;line-height:1.25;font-family:monospace;-inkscape-font-specification:monospace;font-variant-ligatures:normal;font-variant-caps:normal;font-variant-numeric:normal;font-feature-settings:normal;text-align:center;letter-spacing:0px;word-spacing:0px;writing-mode:lr-tb;white-space:pre;shape-inside:url(#rect5580-1-9);fill:#000000;fill-opacity:1;stroke:none"
         x="44.31974"
         y="0"><tspan
           x="190.21973"
           y="84.605469"
           id="tspan89567">Authenticated onion service</tspan></text>
    </g>
    <path
       id="path24692"
       style="font-variation-settings:normal;vector-effect:none;fill:none;fill-opacity:1;stroke:#800080;stroke-width:1;stroke-linecap:butt;stroke-linejoin:miter;stroke-miterlimit:4;stroke-dasharray:none;stroke-dashoffset:0;stroke-opacity:1;-inkscape-stroke:none;marker-end:url(#Arrow1Send);stop-color:#000000"
       d="m 119.18783,176.41522 12.20692,-53.73256 23.7306,-4.33571 1e-5,11.96053"
       sodipodi:nodetypes="cccc" />
    <g
       id="g37594"
       transform="translate(-5.2916663,1.2025299)">
      <text
         xml:space="preserve"
         style="font-style:normal;font-variant:normal;font-weight:bold;font-stretch:normal;font-size:4.9389px;line-height:1.25;font-family:monospace;-inkscape-font-specification:'monospace Bold';font-variant-ligatures:normal;font-variant-caps:normal;font-variant-numeric:normal;font-feature-settings:normal;text-align:start;letter-spacing:0px;word-spacing:0px;writing-mode:lr-tb;text-anchor:start;fill:#000000;fill-opacity:1;stroke:none;stroke-width:0.264583"
         x="154.18452"
         y="94.283615"
         id="text19947"><tspan
           sodipodi:role="line"
           id="tspan19945"
           style="font-style:normal;font-variant:normal;font-weight:bold;font-stretch:normal;font-family:monospace;-inkscape-font-specification:'monospace Bold';stroke-width:0.264583"
           x="154.18452"
           y="94.283615">Monitoring server</tspan></text>
      <g
         id="g33765"
         transform="translate(-3.4602626)">
        <g
           id="g16243-6"
           transform="translate(130.1509,15.613669)">
          <text
             xml:space="preserve"
             style="font-style:normal;font-variant:normal;font-weight:normal;font-stretch:normal;font-size:4.9389px;line-height:1.25;font-family:monospace;-inkscape-font-specification:monospace;font-variant-ligatures:normal;font-variant-caps:normal;font-variant-numeric:normal;font-feature-settings:normal;text-align:start;letter-spacing:0px;word-spacing:0px;writing-mode:lr-tb;text-anchor:start;fill:#000000;fill-opacity:1;stroke:none;stroke-width:0.264583"
             x="33.76376"
             y="98.004349"
             id="text2374-1"><tspan
               sodipodi:role="line"
               style="text-align:center;text-anchor:middle;stroke-width:0.264583"
               x="33.76376"
               y="98.004349"
               id="tspan2898-0">Tor</tspan></text>
          <rect
             style="opacity:1;fill:none;fill-opacity:1;stroke:#000000;stroke-width:1;stroke-linecap:butt;stroke-linejoin:miter;stroke-miterlimit:4;stroke-dasharray:none;stroke-dashoffset:0;stroke-opacity:1;paint-order:markers fill stroke"
             id="rect9785-4"
             width="32.971386"
             height="17.200537"
             x="17.240688"
             y="87.638809"
             ry="7.413919"
             rx="7.413919" />
        </g>
        <g
           id="g16238-0"
           transform="translate(131.09442,14.263915)">
          <rect
             style="fill:none;fill-opacity:1;stroke:#000000;stroke-width:1;stroke-linecap:butt;stroke-linejoin:miter;stroke-miterlimit:4;stroke-dasharray:none;stroke-dashoffset:0;stroke-opacity:1;paint-order:markers fill stroke"
             id="rect9785-7-4"
             width="32.971386"
             height="17.200537"
             x="54.390781"
             y="88.988564"
             ry="7.413919"
             rx="7.413919" />
          <text
             xml:space="preserve"
             style="font-style:normal;font-variant:normal;font-weight:normal;font-stretch:normal;font-size:4.9389px;line-height:1.25;font-family:monospace;-inkscape-font-specification:monospace;font-variant-ligatures:normal;font-variant-caps:normal;font-variant-numeric:normal;font-feature-settings:normal;text-align:start;letter-spacing:0px;word-spacing:0px;writing-mode:lr-tb;text-anchor:start;fill:#000000;fill-opacity:1;stroke:none;stroke-width:0.264583"
             x="56.016365"
             y="99.430069"
             id="text9969-2"><tspan
               sodipodi:role="line"
               style="stroke-width:0.264583"
               x="56.016365"
               y="99.430069"
               id="tspan9967-9">Prometheus</tspan></text>
        </g>
        <g
           id="g17353"
           transform="translate(-1.7921729,-1.5992046)">
          <g
             id="g33746"
             transform="translate(-1.6541137,-8.8046004)">
            <text
               xml:space="preserve"
               style="font-style:normal;font-variant:normal;font-weight:normal;font-stretch:normal;font-size:4.9389px;line-height:1.25;font-family:monospace;-inkscape-font-specification:monospace;font-variant-ligatures:normal;font-variant-caps:normal;font-variant-numeric:normal;font-feature-settings:normal;text-align:start;letter-spacing:0px;word-spacing:0px;writing-mode:lr-tb;text-anchor:start;fill:#000000;fill-opacity:1;stroke:none;stroke-width:0.264583"
               x="195.09686"
               y="146.11249"
               id="text7609-5"><tspan
                 sodipodi:role="line"
                 style="stroke-width:0.264583"
                 x="195.09686"
                 y="146.11249"
                 id="tspan7611-29">Grafana</tspan></text>
            <rect
               style="fill:none;fill-opacity:1;stroke:#000000;stroke-width:1;stroke-linecap:butt;stroke-linejoin:miter;stroke-miterlimit:4;stroke-dasharray:none;stroke-dashoffset:0;stroke-opacity:1;paint-order:markers fill stroke"
               id="rect9785-04-02"
               width="32.971386"
               height="17.200537"
               x="188.93149"
               y="135.67099"
               ry="7.413919"
               rx="7.413919" />
          </g>
        </g>
        <g
           id="g16248-2"
           transform="translate(131.0123,-7.4390681)">
          <text
             xml:space="preserve"
             style="font-style:normal;font-variant:normal;font-weight:normal;font-stretch:normal;font-size:4.9389px;line-height:1.25;font-family:monospace;-inkscape-font-specification:monospace;font-variant-ligatures:normal;font-variant-caps:normal;font-variant-numeric:normal;font-feature-settings:normal;text-align:start;letter-spacing:0px;word-spacing:0px;writing-mode:lr-tb;text-anchor:start;fill:#000000;fill-opacity:1;stroke:none;stroke-width:0.264583"
             x="22.48196"
             y="142.62566"
             id="text7609-2"><tspan
               sodipodi:role="line"
               style="stroke-width:0.264583"
               x="22.48196"
               y="142.62566"
               id="tspan7611-2">OpenSSH</tspan></text>
          <rect
             style="fill:none;fill-opacity:1;stroke:#000000;stroke-width:1;stroke-linecap:butt;stroke-linejoin:miter;stroke-miterlimit:4;stroke-dasharray:none;stroke-dashoffset:0;stroke-opacity:1;paint-order:markers fill stroke"
             id="rect9785-04-0"
             width="32.971386"
             height="17.200537"
             x="16.379292"
             y="132.70625"
             ry="7.413919"
             rx="7.413919" />
        </g>
      </g>
    </g>
    <path
       style="fill:none;stroke:#000000;stroke-width:1;stroke-linecap:butt;stroke-linejoin:miter;stroke-miterlimit:4;stroke-dasharray:none;stroke-opacity:1;marker-end:url(#Arrow1Send-9)"
       d="m -17.747784,103.8507 26.7602819,-0.005 13.2669321,6.70274"
       id="path22533"
       sodipodi:nodetypes="ccc" />
    <path
       style="fill:none;stroke:#000000;stroke-width:1;stroke-linecap:butt;stroke-linejoin:miter;stroke-miterlimit:4;stroke-dasharray:none;stroke-opacity:1;marker-end:url(#Arrow1Send-9)"
       d="m -17.747784,123.26185 26.7602819,0.005 13.2669321,-6.70274"
       id="path10582-0"
       sodipodi:nodetypes="ccc" />
    <rect
       style="fill:none;fill-opacity:1;stroke:#000000;stroke-width:0.999993;stroke-linecap:butt;stroke-linejoin:miter;stroke-miterlimit:4;stroke-dasharray:none;stroke-dashoffset:0;stroke-opacity:1;paint-order:markers fill stroke"
       id="rect31-9"
       width="85.554832"
       height="61.085255"
       x="131.39474"
       y="86.748772" />
    <g
       id="g37788"
       transform="translate(-5.2916663,6.3775268)">
      <circle
         style="fill:#800080;fill-opacity:1;stroke:#000000;stroke-width:1;stroke-linecap:butt;stroke-linejoin:miter;stroke-miterlimit:4;stroke-dasharray:none;stroke-dashoffset:0;stroke-opacity:1;paint-order:markers fill stroke"
         id="circle7168-4"
         cx="136.68642"
         cy="116.30513"
         r="4.1263804" />
      <g
         id="g1246-0"
         transform="translate(42.969963,52.032753)">
        <circle
           style="fill:#800080;fill-opacity:1;stroke:#000000;stroke-width:1;stroke-linecap:butt;stroke-linejoin:miter;stroke-miterlimit:4;stroke-dasharray:none;stroke-dashoffset:0;stroke-opacity:1;paint-order:markers fill stroke"
           id="circle7168-8-6-9-7"
           cx="93.716454"
           cy="45.017616"
           r="4.1263804" />
        <circle
           style="fill:none;stroke:#000000;stroke-width:1;-inkscape-stroke:none;paint-order:markers fill stroke;stop-color:#000000"
           id="path1140-5"
           cx="93.716454"
           cy="45.017616"
           r="2.131649" />
      </g>
    </g>
    <rect
       style="fill:none;fill-opacity:1;stroke:#000000;stroke-width:0.999993;stroke-linecap:butt;stroke-linejoin:miter;stroke-miterlimit:4;stroke-dasharray:none;stroke-dashoffset:0;stroke-opacity:1;paint-order:markers fill stroke"
       id="rect31"
       width="85.554832"
       height="61.085255"
       x="9.0124979"
       y="86.748772" />
    <text
       xml:space="preserve"
       style="font-style:normal;font-variant:normal;font-weight:normal;font-stretch:normal;font-size:4.9389px;line-height:1.25;font-family:monospace;-inkscape-font-specification:monospace;font-variant-ligatures:normal;font-variant-caps:normal;font-variant-numeric:normal;font-feature-settings:normal;text-align:start;letter-spacing:0px;word-spacing:0px;writing-mode:lr-tb;text-anchor:start;fill:#000000;fill-opacity:1;stroke:none;stroke-width:0.264583"
       x="36.915337"
       y="94.64402"
       id="text959"><tspan
         sodipodi:role="line"
         id="tspan957"
         style="font-style:normal;font-variant:normal;font-weight:bold;font-stretch:normal;font-family:monospace;-inkscape-font-specification:'monospace Bold';stroke-width:0.264583"
         x="36.915337"
         y="94.64402">Tor bridge</tspan></text>
    <g
       id="g22205"
       transform="translate(0,0.59026371)">
      <circle
         style="fill:#ffffff;fill-opacity:1;stroke:#000000;stroke-width:1;stroke-linecap:butt;stroke-linejoin:miter;stroke-miterlimit:4;stroke-dasharray:none;stroke-dashoffset:0;stroke-opacity:1;paint-order:markers fill stroke"
         id="path7064-2"
         cx="9.0124979"
         cy="122.67659"
         r="4.1263804" />
      <circle
         style="fill:#ffffff;fill-opacity:1;stroke:#000000;stroke-width:1;stroke-linecap:butt;stroke-linejoin:miter;stroke-miterlimit:4;stroke-dasharray:none;stroke-dashoffset:0;stroke-opacity:1;paint-order:markers fill stroke"
         id="path7064-8"
         cx="9.0124979"
         cy="103.25544"
         r="4.1263804" />
    </g>
    <circle
       style="fill:#800080;fill-opacity:1;stroke:#000000;stroke-width:1;stroke-linecap:butt;stroke-linejoin:miter;stroke-miterlimit:4;stroke-dasharray:none;stroke-dashoffset:0;stroke-opacity:1;paint-order:markers fill stroke"
       id="circle7168"
       cx="94.567329"
       cy="135.01233"
       r="4.1263804" />
    <text
       xml:space="preserve"
       transform="matrix(0.26458333,0,0,0.26458333,-10.254381,18.117422)"
       id="text14907"
       style="font-style:normal;font-variant:normal;font-weight:normal;font-stretch:normal;font-size:16px;line-height:1.25;font-family:monospace;-inkscape-font-specification:monospace;font-variant-ligatures:normal;font-variant-caps:normal;font-variant-numeric:normal;font-feature-settings:normal;text-align:center;letter-spacing:0px;word-spacing:0px;writing-mode:lr-tb;white-space:pre;shape-inside:url(#rect14909);fill:#000000;fill-opacity:1;stroke:none"
       x="54.737728"
       y="0"><tspan
         x="-145.60938"
         y="389.28516"
         id="tspan89569">Client obfs4 </tspan><tspan
         x="-135.97656"
         y="409.28516"
         id="tspan89571">connection</tspan></text>
    <text
       xml:space="preserve"
       transform="matrix(0.26458333,0,0,0.26458333,-12.414973,-3.4855151)"
       id="text14907-2"
       style="font-style:normal;font-variant:normal;font-weight:normal;font-stretch:normal;font-size:16px;line-height:1.25;font-family:monospace;-inkscape-font-specification:monospace;font-variant-ligatures:normal;font-variant-caps:normal;font-variant-numeric:normal;font-feature-settings:normal;text-align:center;letter-spacing:0px;word-spacing:0px;writing-mode:lr-tb;white-space:pre;shape-inside:url(#rect14909-3);fill:#000000;fill-opacity:1;stroke:none"
       x="54.737728"
       y="0"><tspan
         x="-132.05273"
         y="389.28516"
         id="tspan89573">Tor network </tspan><tspan
         x="-103.1543"
         y="409.28516"
         id="tspan89575">relay </tspan><tspan
         x="-146.50195"
         y="429.28516"
         id="tspan89577">communications</tspan></text>
    <g
       id="g21053"
       transform="translate(0.03643202)">
      <g
         id="g16243"
         transform="translate(-0.69522312,17.317201)">
        <text
           xml:space="preserve"
           style="font-style:normal;font-variant:normal;font-weight:normal;font-stretch:normal;font-size:4.9389px;line-height:1.25;font-family:monospace;-inkscape-font-specification:monospace;font-variant-ligatures:normal;font-variant-caps:normal;font-variant-numeric:normal;font-feature-settings:normal;text-align:start;letter-spacing:0px;word-spacing:0px;writing-mode:lr-tb;text-anchor:start;fill:#000000;fill-opacity:1;stroke:none;stroke-width:0.264583"
           x="33.76376"
           y="98.004349"
           id="text2374"><tspan
             sodipodi:role="line"
             style="text-align:center;text-anchor:middle;stroke-width:0.264583"
             x="33.76376"
             y="98.004349"
             id="tspan2898">Tor</tspan></text>
        <rect
           style="opacity:1;fill:none;fill-opacity:1;stroke:#000000;stroke-width:1;stroke-linecap:butt;stroke-linejoin:miter;stroke-miterlimit:4;stroke-dasharray:none;stroke-dashoffset:0;stroke-opacity:1;paint-order:markers fill stroke"
           id="rect9785"
           width="32.971386"
           height="17.200537"
           x="17.240688"
           y="87.638809"
           ry="7.413919"
           rx="7.413919" />
      </g>
      <g
         id="g16238"
         transform="translate(-0.40066835,15.967447)">
        <rect
           style="fill:none;fill-opacity:1;stroke:#000000;stroke-width:1;stroke-linecap:butt;stroke-linejoin:miter;stroke-miterlimit:4;stroke-dasharray:none;stroke-dashoffset:0;stroke-opacity:1;paint-order:markers fill stroke"
           id="rect9785-7"
           width="32.971386"
           height="17.200537"
           x="54.390781"
           y="88.988564"
           ry="7.413919"
           rx="7.413919" />
        <text
           xml:space="preserve"
           style="font-style:normal;font-variant:normal;font-weight:normal;font-stretch:normal;font-size:4.9389px;line-height:1.25;font-family:monospace;-inkscape-font-specification:monospace;font-variant-ligatures:normal;font-variant-caps:normal;font-variant-numeric:normal;font-feature-settings:normal;text-align:start;letter-spacing:0px;word-spacing:0px;writing-mode:lr-tb;text-anchor:start;fill:#000000;fill-opacity:1;stroke:none;stroke-width:0.264583"
           x="56.016365"
           y="99.430069"
           id="text9969"><tspan
             sodipodi:role="line"
             style="stroke-width:0.264583"
             x="56.016365"
             y="99.430069"
             id="tspan9967">Prometheus</tspan></text>
      </g>
      <g
         id="g16248"
         transform="translate(0.16617367,-6.2941967)">
        <text
           xml:space="preserve"
           style="font-style:normal;font-variant:normal;font-weight:normal;font-stretch:normal;font-size:4.9389px;line-height:1.25;font-family:monospace;-inkscape-font-specification:monospace;font-variant-ligatures:normal;font-variant-caps:normal;font-variant-numeric:normal;font-feature-settings:normal;text-align:start;letter-spacing:0px;word-spacing:0px;writing-mode:lr-tb;text-anchor:start;fill:#000000;fill-opacity:1;stroke:none;stroke-width:0.264583"
           x="22.48196"
           y="142.62566"
           id="text7609"><tspan
             sodipodi:role="line"
             style="stroke-width:0.264583"
             x="22.48196"
             y="142.62566"
             id="tspan7611">OpenSSH</tspan></text>
        <rect
           style="fill:none;fill-opacity:1;stroke:#000000;stroke-width:1;stroke-linecap:butt;stroke-linejoin:miter;stroke-miterlimit:4;stroke-dasharray:none;stroke-dashoffset:0;stroke-opacity:1;paint-order:markers fill stroke"
           id="rect9785-04"
           width="32.971386"
           height="17.200537"
           x="16.379292"
           y="132.70625"
           ry="7.413919"
           rx="7.413919" />
      </g>
      <g
         id="g16253"
         transform="translate(3.2158439,-3.843681)">
        <text
           xml:space="preserve"
           style="font-style:normal;font-variant:normal;font-weight:normal;font-stretch:normal;font-size:4.9389px;line-height:1.25;font-family:monospace;-inkscape-font-specification:monospace;font-variant-ligatures:normal;font-variant-caps:normal;font-variant-numeric:normal;font-feature-settings:normal;text-align:start;letter-spacing:0px;word-spacing:0px;writing-mode:lr-tb;text-anchor:start;fill:#000000;fill-opacity:1;stroke:none;stroke-width:0.264583"
           x="67.29734"
           y="140.62128"
           id="text7040"><tspan
             sodipodi:role="line"
             style="text-align:center;text-anchor:middle;stroke-width:0.264583"
             x="67.29734"
             y="140.62128"
             id="tspan7038">Tor</tspan></text>
        <rect
           style="fill:none;fill-opacity:1;stroke:#000000;stroke-width:1;stroke-linecap:butt;stroke-linejoin:miter;stroke-miterlimit:4;stroke-dasharray:none;stroke-dashoffset:0;stroke-opacity:1;paint-order:markers fill stroke"
           id="rect9785-8"
           width="32.971386"
           height="17.200537"
           x="50.774269"
           y="130.25574"
           ry="7.413919"
           rx="7.413919" />
      </g>
    </g>
    <path
       style="font-variation-settings:normal;opacity:1;vector-effect:none;fill:none;fill-opacity:1;stroke:#800080;stroke-width:1;stroke-linecap:butt;stroke-linejoin:miter;stroke-miterlimit:4;stroke-dasharray:none;stroke-dashoffset:0;stroke-opacity:1;-inkscape-stroke:none;marker-end:url(#Arrow1Send);stop-color:#000000;stop-opacity:1"
       d="m 155.12535,118.34695 28.09936,11.74544"
       id="path42247" />
    <text
       xml:space="preserve"
       transform="matrix(0.26458333,0,0,0.26458333,5.1227815,-0.25945296)"
       id="text47938"
       style="font-style:normal;font-variant:normal;font-weight:normal;font-stretch:normal;font-size:12px;line-height:1.25;font-family:monospace;-inkscape-font-specification:monospace;font-variant-ligatures:normal;font-variant-caps:normal;font-variant-numeric:normal;font-feature-settings:normal;text-align:center;letter-spacing:0px;word-spacing:0px;writing-mode:lr-tb;white-space:pre;shape-inside:url(#rect47940);fill:#000000;fill-opacity:1;stroke:none"
       x="46.025391"
       y="0"><tspan
         x="335.94629"
         y="598.42383"
         id="tspan89579">Deploy </tspan><tspan
         x="310.66016"
         y="613.42383"
         id="tspan89581">configuration</tspan></text>
    <text
       xml:space="preserve"
       transform="matrix(0.26458333,0,0,0.26458333,28.969494,-10.984498)"
       id="text47938-6"
       style="font-style:normal;font-variant:normal;font-weight:normal;font-stretch:normal;font-size:12px;line-height:1.25;font-family:monospace;-inkscape-font-specification:monospace;font-variant-ligatures:normal;font-variant-caps:normal;font-variant-numeric:normal;font-feature-settings:normal;text-align:center;letter-spacing:0px;word-spacing:0px;writing-mode:lr-tb;white-space:pre;shape-inside:url(#rect47940-2);fill:#000000;fill-opacity:1;stroke:none"
       x="46.025391"
       y="0"><tspan
         x="335.94629"
         y="598.42383"
         id="tspan89583">Deploy </tspan><tspan
         x="310.66016"
         y="613.42383"
         id="tspan89585">configuration</tspan></text>
    <text
       xml:space="preserve"
       transform="matrix(0.26458333,0,0,0.26458333,15.866946,-45.134525)"
       id="text47938-6-8"
       style="font-style:normal;font-variant:normal;font-weight:normal;font-stretch:normal;font-size:12px;line-height:1.25;font-family:monospace;-inkscape-font-specification:monospace;font-variant-ligatures:normal;font-variant-caps:normal;font-variant-numeric:normal;font-feature-settings:normal;text-align:center;letter-spacing:0px;word-spacing:0px;writing-mode:lr-tb;white-space:pre;shape-inside:url(#rect47940-2-2);fill:#000000;fill-opacity:1;stroke:none"
       x="46.025391"
       y="0"><tspan
         x="314.27246"
         y="598.42383"
         id="tspan89587">Push metrics</tspan></text>
    <text
       xml:space="preserve"
       transform="matrix(0.26458333,0,0,0.26458333,28.64971,2.3526196)"
       id="text47938-6-1"
       style="font-style:normal;font-variant:normal;font-weight:normal;font-stretch:normal;font-size:12px;line-height:1.25;font-family:monospace;-inkscape-font-specification:monospace;font-variant-ligatures:normal;font-variant-caps:normal;font-variant-numeric:normal;font-feature-settings:normal;text-align:center;letter-spacing:0px;word-spacing:0px;writing-mode:lr-tb;white-space:pre;shape-inside:url(#rect47940-2-4);fill:#000000;fill-opacity:1;stroke:none"
       x="46.025391"
       y="0"><tspan
         x="332.33398"
         y="598.42383"
         id="tspan89589">Observe </tspan><tspan
         x="332.33398"
         y="613.42383"
         id="tspan89591">metrics</tspan></text>
  </g>
</svg>
